4 3
-7.793405857172052e-004 1.955430333851318e-002 1.426528678306744e-006 
2.032472163844410e-002 1.683666671156455e-003 4.030629597792698e-006 
-2.596105920069671e-003 4.212768564279207e-003 -2.559511600934840e-005 
4.396334014080142e+002 2.575337682340261e+002 -1.161407338927446e+000 

