4 3
4.710401431977008e-003 1.969002521526595e-002 3.090781060884037e-006 
2.227304743619457e-002 -2.235025542960614e-003 4.791882164720254e-006 
-6.196360903226128e-003 3.567958740280620e-003 -2.791688422419721e-005 
2.189742538383817e+002 1.108657387943005e+002 -1.326800563773180e+000 

